<?xml version="1.0" encoding="UTF-8"?>
<svg xmlns="http://www.w3.org/2000/svg" xmlns:xlink="http://www.w3.org/1999/xlink" width="16px" height="16px" viewBox="0 0 16 16" version="1.1">
<g id="surface1">
<path style=" stroke:none;fill-rule:nonzero;fill:rgb(0%,0%,0%);fill-opacity:1;" d="M 6.75 0 L 9.25 0 C 9.664062 0 10 0.335938 10 0.75 L 10 6 L 12.742188 6 C 13.296875 6 13.574219 6.671875 13.179688 7.066406 L 8.429688 11.820312 C 8.195312 12.054688 7.808594 12.054688 7.574219 11.820312 L 2.816406 7.066406 C 2.421875 6.671875 2.699219 6 3.257812 6 L 6 6 L 6 0.75 C 6 0.335938 6.335938 0 6.75 0 Z M 16 11.75 L 16 15.25 C 16 15.664062 15.664062 16 15.25 16 L 0.75 16 C 0.335938 16 0 15.664062 0 15.25 L 0 11.75 C 0 11.335938 0.335938 11 0.75 11 L 5.335938 11 L 6.867188 12.53125 C 7.492188 13.160156 8.507812 13.160156 9.132812 12.53125 L 10.664062 11 L 15.25 11 C 15.664062 11 16 11.335938 16 11.75 Z M 12.125 14.5 C 12.125 14.15625 11.84375 13.875 11.5 13.875 C 11.15625 13.875 10.875 14.15625 10.875 14.5 C 10.875 14.84375 11.15625 15.125 11.5 15.125 C 11.84375 15.125 12.125 14.84375 12.125 14.5 Z M 14.125 14.5 C 14.125 14.15625 13.84375 13.875 13.5 13.875 C 13.15625 13.875 12.875 14.15625 12.875 14.5 C 12.875 14.84375 13.15625 15.125 13.5 15.125 C 13.84375 15.125 14.125 14.84375 14.125 14.5 Z M 14.125 14.5 "/>
</g>
</svg>
